101.255.120.170:6969
101.255.124.202:46553
101.255.124.243:3128
101.255.36.233:40856
101.255.40.158:34118
101.255.44.98:39885
101.255.52.162:31941
101.255.54.177:56410
101.255.56.138:53560
101.255.58.225:61598
101.255.58.26:54232
101.255.62.138:32948
101.255.75.125:46191
103.10.120.205:8080
103.105.70.13:60114
103.110.43.3:38987
103.110.88.20:61352
103.110.91.238:42838
103.111.29.70:51102
103.111.30.218:32969
103.111.52.134:42395
103.111.53.82:46633
103.111.56.133:61103
103.111.81.142:46127
103.111.83.26:53253
103.112.162.34:8080
103.15.243.236:80
103.17.244.82:42396
103.18.132.202:52852
103.197.92.130:33465
103.2.146.66:49089
103.206.253.58:49573
103.206.254.170:65103
103.21.92.254:33929
103.210.120.42:44700
103.22.248.59:38212
103.224.101.155:52244
103.226.49.83:23500
103.227.144.51:48106
103.227.145.102:56650
103.228.117.110:56033
103.228.118.66:37533
103.229.200.241:60938
103.232.242.130:47400
103.232.242.222:55858
103.232.33.88:41154
103.247.15.146:41476
103.247.217.117:36639
103.247.226.114:44938
103.248.219.139:39843
103.248.219.34:61452
103.25.167.200:58727
103.252.163.191:80
103.253.2.168:51229
103.254.106.94:37455
103.254.126.182:38341
103.255.242.22:35747
103.255.53.98:36262
103.28.226.125:32862
103.28.226.83:46351
103.28.56.182:40419
103.29.184.106:47338
103.3.77.94:37239
103.31.225.162:31203
103.31.45.106:23500
103.31.45.169:57655
103.43.130.33:56687
103.52.70.66:50779
103.54.95.141:50654
103.56.205.209:53460
103.56.232.130:31816
103.56.233.246:31991
103.57.195.131:57376
103.60.181.210:55719
103.66.196.218:23500
103.68.0.174:36180
103.75.27.138:34208
103.76.170.50:61755
103.78.101.253:36210
103.78.101.9:57255
103.78.141.58:56407
103.78.213.226:44182
103.78.213.226:52751
103.8.122.1:53297
103.83.95.122:40304
103.83.95.122:55659
103.84.145.140:8080
103.84.208.22:33606
103.85.150.130:23500
103.86.140.74:59538
103.86.141.34:56916
103.86.155.78:41785
103.94.0.179:53439
103.94.0.181:53439
103.94.120.66:45805
103.94.121.27:33665
103.94.125.244:41508
103.94.127.10:30561
103.94.127.10:42097
103.94.169.114:33033
103.94.7.142:42578
110.136.205.9:61985
110.136.250.195:8080
110.232.67.50:23500
110.232.80.247:14996
110.232.83.190:30619
110.5.100.130:44613
111.68.31.50:40700
112.109.18.161:53072
112.78.143.26:32310
112.78.38.166:38204
112.78.44.217:59551
113.11.131.123:59769
113.11.156.42:60046
114.110.22.90:43221
114.141.55.90:38812
114.199.112.170:23500
114.199.115.106:34402
114.4.116.174:44986
114.5.128.18:47544
114.5.22.54:46059
114.57.189.82:36893
114.57.238.254:38600
114.57.33.162:46935
114.6.16.118:8080
114.6.61.122:54097
114.8.145.74:60171
114.8.147.102:42022
115.124.75.226:53990
115.124.78.142:38994
115.124.85.219:58446
115.124.86.105:56659
115.166.100.5:57068
115.85.69.226:41661
116.12.40.226:8080
116.50.25.154:41696
116.90.183.20:46871
117.102.94.148:34569
117.103.169.92:37111
117.103.5.186:44825
117.103.69.98:45561
117.121.200.174:58072
117.121.207.149:55275
117.54.13.174:34190
117.54.141.10:38558
117.54.239.82:60843
117.74.113.45:61705
118.97.193.204:52668
118.97.53.99:33150
119.18.155.135:60118
119.235.19.42:38546
119.82.244.166:60350
119.82.245.98:60170
121.101.185.78:34271
121.101.186.70:54226
122.102.41.82:36190
122.102.43.82:48267
122.129.108.107:42758
122.129.199.142:60159
124.81.99.30:3128
125.165.179.254:39566
137.59.161.162:43938
137.59.162.102:30742
139.255.103.106:56386
139.255.113.250:58176
139.255.123.194:4550
139.255.16.162:58583
139.255.16.163:58583
139.255.19.162:42371
139.255.40.138:57972
139.255.92.234:57269
139.255.94.122:45314
150.129.57.147:56671
158.140.181.140:54041
175.176.160.186:35754
175.184.248.183:46816
180.214.247.195:61506
180.250.157.178:53867
180.250.161.154:49236
180.250.253.155:58354
180.254.9.44:8080
182.16.181.90:44196
182.16.182.242:23500
182.16.183.242:23500
182.16.187.98:23500
182.23.100.187:38770
182.23.32.177:38826
182.23.98.10:52884
182.253.102.74:33624
182.253.152.173:8080
182.253.193.234:43034
182.253.195.174:36964
182.253.204.155:60393
182.253.21.26:36926
182.253.82.106:46892
183.91.69.2:8080
202.129.185.147:30224
202.137.10.179:57338
202.138.229.73:55161
202.138.247.148:32053
202.138.249.202:43108
202.138.252.21:51244
202.148.31.46:60931
202.150.139.46:38021
202.152.38.77:52740
202.154.181.42:23500
202.158.6.115:59396
202.162.221.250:48199
202.162.222.154:45493
202.169.238.203:54872
202.169.246.124:23500
202.169.43.218:33161
202.182.164.165:43646
202.43.190.11:8118
202.57.8.144:61220
202.58.199.150:47168
202.59.171.164:58567
202.72.219.42:61300
202.74.239.21:37639
202.78.199.26:60609
202.78.200.106:42255
202.92.204.162:44277
202.92.204.170:44400
202.93.113.4:55321
203.128.87.66:37711
203.142.77.115:46235
203.142.77.115:51464
203.153.107.166:37509
203.153.108.237:52089
203.153.20.177:61993
203.173.92.254:33486
203.173.94.101:38865
203.174.12.86:38899
203.174.15.234:37261
203.190.53.82:37063
203.201.174.82:23500
203.210.84.122:53910
203.210.84.161:34982
203.215.48.158:45523
203.77.215.250:61474
203.77.230.163:50442
203.77.249.114:36395
203.77.252.250:59441
203.77.254.145:43137
203.84.152.45:8888
203.89.29.174:34226
203.99.110.214:36053
203.99.117.122:35726
203.99.121.26:8888
203.99.121.2:8888
203.99.131.218:61151
210.211.16.146:51539
210.211.17.98:31632
210.57.215.238:34819
219.83.64.115:30442
220.247.170.82:3128
220.247.174.12:53616
222.124.215.187:38913
222.124.30.138:57326
222.165.214.98:31108
222.165.222.137:30687
222.165.231.50:23500
222.165.234.147:31510
222.165.249.43:23500
223.25.101.242:59504
27.111.47.178:23500
27.112.70.139:60235
27.123.1.46:65103
27.123.4.102:49746
27.50.18.42:23500
36.37.112.210:42883
36.37.113.4:36485
36.37.114.36:41454
36.37.124.234:36179
36.37.70.70:36709
36.37.86.60:38738
36.37.89.98:32323
36.66.126.219:31015
36.66.138.25:40496
36.66.140.207:50406
36.66.173.233:51000
36.66.175.111:51498
36.66.187.183:37377
36.66.197.94:8080
36.66.201.130:34275
36.66.203.245:51988
36.66.210.211:55604
36.66.218.121:52368
36.66.220.173:56349
36.66.220.185:31765
36.66.231.119:36988
36.66.235.147:58068
36.66.252.50:39925
36.66.40.11:33555
36.66.43.133:61303
36.66.43.39:40206
36.66.57.213:21867
36.66.61.7:56232
36.66.76.194:3128
36.66.83.153:32724
36.66.83.153:55166
36.66.95.133:39399
36.66.95.13:48003
36.67.106.218:39192
36.67.139.27:51867
36.67.142.59:50173
36.67.143.183:48746
36.67.145.213:48060
36.67.158.49:65301
36.67.202.229:36175
36.67.203.74:37232
36.67.204.74:61438
36.67.206.159:49745
36.67.220.197:35260
36.67.223.67:32752
36.67.226.17:61269
36.67.32.205:51257
36.67.50.122:35649
36.67.57.73:36399
36.67.63.29:52560
36.67.68.21:51810
36.67.72.175:58900
36.67.8.81:37579
36.72.61.22:8080
36.73.135.95:8080
36.74.65.161:3128
36.81.1.38:8080
36.89.106.247:50641
36.89.128.135:59611
36.89.157.23:37728
36.89.157.69:50915
36.89.171.243:50679
36.89.181.155:60165
36.89.184.139:55394
36.89.188.11:39507
36.89.190.141:50877
36.89.191.169:60473
36.89.194.113:37811
36.89.194.141:60493
36.89.225.13:36414
36.89.228.201:50139
36.89.232.138:23500
36.89.235.35:51455
36.89.238.19:56910
36.89.239.133:36310
36.89.36.13:8080
36.89.41.26:59975
36.89.65.253:60997
36.89.74.130:47349
36.89.81.129:53732
36.89.85.45:47586
36.89.89.239:50472
36.91.39.89:37722
36.91.39.89:60732
36.91.44.243:44294
36.91.44.243:51044
36.91.45.10:33508
42.62.176.1:8081
42.62.177.30:59850
42.62.179.193:8081
43.225.186.82:23500
43.245.184.202:41102
43.245.187.222:48518
43.248.24.250:4550
43.249.141.9:59520
49.236.220.6:23500
66.96.228.97:30564
66.96.233.225:35053