TANAMAN HERBAL	PENYAKIT
Seledri	asam urat
Seledri	hipertensi
Seledri	mata kering
Mengkudu	sakit kepala
Mengkudu	asam urat
Mengkudu	sakit kuning
Mengkudu	jantung koroner
Daun Sirih	asma
Daun Sirih	radang tenggorokan
Daun Sirih	sakit mata
Daun Sirih	mimisan
Daun Sirih	sakit gigi
Daun Sirih	keputihan
Lidah Buaya	sakit kulit
Lidah Buaya	luka
Lidah Buaya	kanker
Belimbing	kolestrol tinggi
Belimbing	hipertensi
Belimbing Wuluh	hipertensi
Belimbing Wuluh	gondongan
Belimbing Wuluh	diabetes
Belimbing Wuluh	sariawan
Belimbing Wuluh	jerawat
Temulawak	radang
Temulawak	hepatitis B
Temulawak	kanker hati
Daun Jarak	rematik
Daun Jarak	kanker rahim
Daun Jarak	hernia
Daun Jarak	TBC
Sambiloto	TBC
Sambiloto	batuk rejan
Sambiloto	radang paru
Beluntas	demam
Beluntas	nyeri tulang
Beluntas	sakit pinggang
Beluntas	keputihan
Cincau	radang lambung
Cincau	tekanan darah tinggi
Cincau	tifus
Cincau	demam
Daun Kumis Kucing	infeksi kandung kemih
Daun Kumis Kucing	kencing batu
Daun Kumis Kucing	encok
Daun Kumis Kucing	infeksi saluran kencing
Daun Kumis Kucing	keputihan
Ciplukan	diabetes mellitus
Ciplukan	sakit tenggorokan
Ciplukan	batuk rejan
Ciplukan	gondongan
Ciplukan	bisul
Daun Jintan	sariawan
Daun Jintan	batuk
Daun Jintan	perut mulas
Daun Jintan	sakit gigi
Daun Katuk	demam
Daun Katuk	bisul
Daun Katuk	borok
Daun Meniran	penyakit kuning
Daun Meniran	malaria
Daun Meniran	epilepsi
Daun Meniran	demam
Daun Nilam	disentri
Pecut Kuda	rematik
Pecut Kuda	sakit tenggorokan
Pecut Kuda	hepatitis A
Daun Seribu	sakit perut
Daun Selasih	demam
Daun Selasih	sakit kepala
Daun Selasih	nyeri lambung
Daun Selasih	gangguan percernaan
Daun Selasih	rematik
Daun Lidah Ular	tumor
Daun Keji Beling	kencing batu
Daun Keji Beling	kencing manis
Daun Keji Beling	sembelit
Daun Keji Beling	tumor
Daun Keji Beling	diabetes mellitus
Daun Keji Beling	sakit kuning
Daun Keji Beling	kolesterol tinggi
Daun Keji Beling	diare
Daun Keji Beling	gatal
Daun Bayam Duri	wasir
Daun Bayam Duri	demam
Daun Patikan Kebo	batuk
Daun Patikan Kebo	inflamasi
Daun Patikan Kebo	sariawan
Kembang Telang	penyakit kulit
Kembang Telang	mata merah
Kembang Telang	jerawat