TANAMAN HERBAL	PENYAKIT
Adem Ati	kencing manis
Adem Ati	luka berdarah
Adem Ati	radang usus
Akar Manis	batuk
Akar Manis	tukak lambung
Akar Wangi	batu ginjal
Akar Wangi	bau mulut
Akar Wangi	rematik
Alpukat	diabetes
Alpukat	maag
Belimbing	hipertensi
Belimbing Wuluh	diabetes
Belimbing Wuluh	gondongan
Belimbing Wuluh	hipertensi
Belimbing Wuluh	jerawat
Belimbing Wuluh	rematik
Belimbing Wuluh	sakit gigi
Belimbing Wuluh	sariawan
Beluntas	keputihan
Biji Mahoni	demam
Biji Mahoni	masuk angin
Biji Mahoni	rematik
Brotowali	demam
Brotowali	demam kuning
Brotowali	diabetes
Brotowali	kencing manis
Brotowali	rheumatik sendi
Bunga Kenop	asma
Bunga Kenop	batuk
Bunga Kenop	disentri
Bunga Kenop	radang mata
Bunga Kenop	sakit kepala
Cempaka Putih	batuk berdahak
Cempaka Putih	batuk rejan
Cempaka Putih	bau badan
Cempaka Putih	keputihan
Cempaka Putih	sinusitis
Cempaka Putih	vertigo
Cincau	demam
Cincau	radang lambung
Cincau	tekanan darah tinggi
Ciplukan	asma
Ciplukan	bisul
Ciplukan	gondongan
Ciplukan	kanker payudara
Ciplukan	kencing manis
Daun Beluntas	keputihan
Daun Cincau	demam
Daun Cincau	radang lambung
Daun Dewa	kanker
Daun Dewa	luka memar
Daun Dewa	pendarahan
Daun Dewa	tekanan darah tinggi
Daun Jarak	hernia
Daun Jarak	rematik
Daun Jinten	ayan
Daun Jinten	sakit kepala
Daun Katuk	demam
Daun Keji Beling	gatal
Daun Keji Beling	kencing manis
Daun Kumis Kucing	keputihan
Daun Meniran	epilepsi
Daun Sirih	asma
Daun Sirih	keputihan
Daun Sirih	mimisan
Daun Sirih	radang tenggorokan
Daun Sirih	sakit gigi
Daun Sirih	sakit mata
Daun Tempuyung	asam urat
Daun Tempuyung	bisul
Daun Tempuyung	darah tinggi
Daun Tempuyung	kencing batu
Daun Tempuyung	wasir
Keji Beling	batu ginjal
Keji Beling	kencing manis
Kembang Telang	mata merah
Kumis Kucing	asam urat
Kumis Kucing	batuk
Kumis Kucing	diabetes
Kumis Kucing	hipertensi
Kumis Kucing	kencing batu
Kumis Kucing	masuk angin
Lidah Buaya	diabetes
Lidah Buaya	kanker
Lidah Buaya	luka
Lidah Buaya	radang tenggorokan
Lidah Buaya	sembelit
Lidah Buaya	serangan jantung
Mengkudu	asam urat
Mengkudu	jantung koroner
Mengkudu	sakit kepala
Mengkudu	sakit kuning
Sambiloto	sakit perut
Seledri	asam urat
Seledri	hipertensi
Seledri	mata kering
Temulawak	hepatitis B
Temulawak	kanker hati
Temulawak	radang