TEMPAT WISATA	LOKASI
Air Terjun Kedung Pedut	Kulon Progo
Air Terjun Sri Gethuk	Yogyakarta
Anambas	Kepulauan Riau
Bukit Cendana	Yogyakarta
Bukit Kelam	Kalimantan Barat
Bukit Klangon	Yogyakarta
Bukit Kosakora	Yogyakarta
Bukit Lintang Sewu	Yogyakarta
Bukit Mojo Gumelem	Yogyakarta
Bukit Panguk Kediwung	Yogyakarta
Bukit Pengilon	Yogyakarta
Bukit Teletubbies	Yogyakarta
Bunker Kaliadem	Yogyakarta
Candi Abang	Yogyakarta
Candi Muaro Jambi	Jambi
Candi Prambanan	Yogyakarta
Candi Ratu Boko	Yogyakarta
Candi Sari	Yogyakarta
Danau Sentani	Papua
Danau Toba	Sumatera Utara
Fort Marlborough	Bengkulu
Gereja Ayam	Magelang
Gili Trawangan	Nusa Tenggara Barat
Goa Jomblang	Yogyakarta
Goa Pindul	Yogyakarta
Green Village Gedangsari	Yogyakarta
Gumuk Pasir	Yogyakarta
Gunung Bromo	Jawa Timur
Gunung Kerinci	Jambi
Gunung Rinjani	Lombok
Gunung Tangkuban Perahu	Jawa Barat
Halmahera	Maluku Utara
Jalan Malioboro	Yogyakarta
Jembatan Barito	Kalimantan Selatan
Jurang Tembelan	Yogyakarta
Kawah Ijen	Banyuwangi
Kawah Putih	Bandung
Kebun Buah Mangunan	Yogyakarta
Kepulauan Karimun Jawa	Jepara
Kepulauan Kei	Maluku
Kepulauan Seribu	DKI Jakarta
Kota Lama Semarang	Jawa Tengah
Museum Benteng Vredeburg	Yogyakarta
Museum Sultan Mahmud Badaruddin	Palembang
Ngarai Sianok	Bukittinggi
Nusa Dua	Bali
Pantai Baron	Yogyakarta
Pantai Baru	Yogyakarta
Pantai Batu Lamampu	Nunukan
Pantai Dato Majene	Sulawesi Barat
Pantai Depok	Yogyakarta
Pantai Dreamland	Bali
Pantai Drini	Yogyakarta
Pantai Greweng	Yogyakarta
Pantai Indrayanti	Yogyakarta
Pantai Jungwok	Yogyakarta
Pantai Losari	Makassar
Pantai Ngobaran	Yogyakarta
Pantai Ngrumput	Yogyakarta
Pantai Ora	Maluku
Pantai Pandansimo	Yogyakarta
Pantai Parai Tenggiri	Bangka Belitung
Pantai Parangtritis	Yogyakarta
Pantai Sadranan	Yogyakarta
Pantai Sepanjang	Yogyakarta
Pantai Seruni	Yogyakarta
Pantai Siung	Gunungkidul
Pantai Siung	Yogyakarta
Pantai Slili	Yogyakarta
Pantai Sumurtiga	Sabang
Pantai Sundak	Yogyakarta
Pantai Wediombo	Yogyakarta
Pelabuhan Ratu	Sukabumi
Pinus Pengger	Yogyakarta
Pulau Derawan	Kalimantan Timur
Pulau Misool	Papua Barat
Pulau Peucang	Banten
Puncak Becici	Yogyakarta
Pura Luhur Uluwatu	Bali
Raja Ampat	Papua Barat
Seribu Batu Songgo Langit	Yogyakarta
Sindu Kusuma Edupark	Yogyakarta
Spot Riyadi	Yogyakarta
Sungai Kampar	Riau
Taman Laut Bunaken	Manado
Taman Nasional Bromo Tengger Semeru	Jawa Timur
Taman Nasional Way Kambas	Lampung
Taman Pintar	Yogyakarta
Tebing Watu Mabur	Yogyakarta
Tugu Khatulistiwa	Pontianak
Tugu Yogyakarta	Yogyakarta
Ujung Kulon	Banten
Wakatobi	Sulawesi Tenggara
Watu Amben	Yogyakarta
Watu Goyang	Yogyakarta