TEMPAT WISATA	PROVINSI
Bukit Panguk Kediwung	Yogyakarta
Bukit Mojo Gumelem	Yogyakarta
Kebun Buah Mangunan	Yogyakarta
Jembatan Pantai Timang	Yogyakarta
Bukit Pengilon	Yogyakarta
Bukit Teletubbies	Yogyakarta
Bukit Kali kuning	Yogyakarta
Tebing Watu Mabur	Yogyakarta
Bunker Kaliadem	Yogyakarta
Bukit Cendana	Yogyakarta
Jurang Tembelan	Yogyakarta
Seribu Batu Songgo Langit	Yogyakarta
Pinus Pengger	Yogyakarta
Watu Goyang	Yogyakarta
Watu Ngadek	Yogyakarta
Rumah Hobbit Mangunan	Yogyakarta
Gardu Pandang Pinus Asri	Yogyakarta
Watu Amben	Yogyakarta
Bukit Lintang Sewu	Yogyakarta
Jembatan Soka	Yogyakarta
Bukit Isis Kulon Progo	Yogyakarta
Bukit Kosakora	Yogyakarta
Green Village Gedangsari	Yogyakarta
Spot Riyadi	Yogyakarta
Bukit Klangon	Yogyakarta
Batu Alien Cangkringan	Yogyakarta
Puncak Becici	Yogyakarta
Bukit Jangkang	Yogyakarta
Puncak Dipowono	Yogyakarta
Puncak Kuda Sembrani	Yogyakarta
Pantai Pulau Kalong	Yogyakarta
Curug Pulosari	Yogyakarta
Stonehenge Cangkringan	Yogyakarta
Gunung Gentong Gedangsari	Yogyakarta
Air Terjun Randusari	Yogyakarta
Curug Siluwok	Yogyakarta
Kedung Bendo	Yogyakarta
Grojogan Lepo Dlingo	Yogyakarta
Kedung Pengilon	Yogyakarta
Air Terjun Seribu Batu	Yogyakarta
Air terjun Tuwondo	Yogyakarta
Air Terjun Kedung Kandang	Yogyakarta
Curug Banyunibo	Yogyakarta
Curug Bayat	Yogyakarta
Grojogan Pucung	Yogyakarta
Pantai Baru	Yogyakarta
Pantai Pasir Kadilangu	Yogyakarta
Pantai Baros	Yogyakarta
Pantai Parangendog	Yogyakarta
Gumuk Pasir	Yogyakarta
Candi Prambanan	Yogyakarta
Tugu Yogyakarta	Yogyakarta
Jalan Malioboro	Yogyakarta
Pantai Parangtritis	Yogyakarta
Pantai Depok	Yogyakarta
Candi Ratu Boko	Yogyakarta
Kraton Yogyakarta	Yogyakarta
Air Terjun Sri Gethuk	Yogyakarta
Goa Pindul	Yogyakarta
Wisata Alam Kalibiru	Yogyakarta
Museum Benteng Vredeburg	Yogyakarta
Pantai Indrayanti	Yogyakarta
Pantai Siung	Yogyakarta
Gondola Pantai Timang	Yogyakarta
Pantai Ngelambor (snorkeling)	Yogyakarta
Upside Down World Jogja	Yogyakarta
Sindu Kusuma Edupark	Yogyakarta
Jogja Bay Water Park	Yogyakarta
Pasar Bringharjo	Yogyakarta
Wisata Malam Alun-Alun Selatan	Yogyakarta
Pantai Watu Lumbung	Yogyakarta
Pantai Sundak	Yogyakarta
Pantai Sadranan	Yogyakarta
Museum De Mata	Yogyakarta
Museum De Arca	Yogyakarta
Taman Pintar Yogyakarta	Yogyakarta
Taman Sari Jogja	Yogyakarta
Taman Tino Sidin	Yogyakarta
Titik Nol KM Jogja	Yogyakarta
Pantai Sedahan	Yogyakarta
Bukit Bintang Jogja	Yogyakarta
Museum Gunung Merapi	Yogyakarta
Blue Lagoon Jogja	Yogyakarta
Candi Abang	Yogyakarta
Monumen Jogja Kembali	Yogyakarta
Candi Ijo Yogyakarta	Yogyakarta
Candi Barong	Yogyakarta
Candi Sambisari	Yogyakarta
Candi Sari Yogyakarta	Yogyakarta
Tlogo Putri Kaliurang	Yogyakarta
Air Terjun Tlogo Muncar Kaliurang	Yogyakarta
Kampung Teletubbies Yogyakarta	Yogyakarta
Taman Tebing Breksi Yogyakarta	Yogyakarta
Museum Ullen Sentalu	Yogyakarta
Wisata Edukasi Omah Salak	Yogyakarta
Pantai Ngetun	Yogyakarta
Pantai Kayu Arum	Yogyakarta
Goa Jomblang	Yogyakarta
Gunung Api Purba Nglanggeran	Yogyakarta
Pantai Watu Kodok	Yogyakarta
Pantai Jogan	Yogyakarta
Telaga Biru Semin	Yogyakarta
Pantai Jungwok	Yogyakarta
Hutan Wanagama	Yogyakarta
Pantai Sarangan	Yogyakarta
Bukit Sarangan	Yogyakarta
Embung Batara Sriten Gunung Kidul	Yogyakarta
Air Terjun Luweng Sampang	Yogyakarta
Pantai Sadeng	Yogyakarta
Pantai Ngrenehan	Yogyakarta
Embung Nglanggeran	Yogyakarta
Pantai Slili	Yogyakarta
Pantai Pok Tunggal Gunung Kidul	Yogyakarta
Gunung Ireng Yogyakarta	Yogyakarta
Pantai Watu Lawang	Yogyakarta
Pantai Seruni	Yogyakarta
Pantai Ngobaran	Yogyakarta
Baron Technopark Gunung Kidul	Yogyakarta
Pantai Kukup	Yogyakarta
Mercusuar Pantai Baron Gunung Kidul	Yogyakarta
Pantai Wohkudu	Yogyakarta
Goa Rancang Kencono	Yogyakarta
Pantai Ngrumput	Yogyakarta
Gardu Pandang Mangol Kencana	Yogyakarta
Pantai Sanglen	Yogyakarta
Pantai Ngandong	Yogyakarta
Pantai Drini	Yogyakarta
Tegalarum Adventure Park	Yogyakarta
Pantai Baron	Yogyakarta
Curug Tegalrejo	Yogyakarta
Pantai Gesing	Yogyakarta
Pantai Greweng	Yogyakarta
Taman Hutan Raya (TAHURA)	Yogyakarta
Pantai Ngedan	Yogyakarta
Pantai Wediombo	Yogyakarta
Watu Giring	Yogyakarta
Pantai Mbirit	Yogyakarta
Pantai Butuh	Yogyakarta
Watu Payung Gunung Kidul	Yogyakarta
Pantai Kesirat	Yogyakarta
Pantai Nguyahan Gunung Kidul	Yogyakarta
Pantai Sepanjang	Yogyakarta
Pantai Samas Bantul	Yogyakarta
Pantai Kuwaru	Yogyakarta
Pantai Pandansimo	Yogyakarta
Pantai Pandansari	Yogyakarta
Pemandian Air Panas Parang Wedang	Yogyakarta
Kampung Edukasi Watu Lumbung	Yogyakarta
Goa Gajah Mangunan	Yogyakarta
Hutan Pinus Mangunan	Yogyakarta
Goa Cerme Bantul	Yogyakarta
Makam Raja Imogiri	Yogyakarta
Jembatan Gantung Selopamioro	Yogyakarta
Bukit Bego Imogiri	Yogyakarta
Goa Selarong Bantul	Yogyakarta
Pantai Goa Cemara Bantul	Yogyakarta
Bukit Parang Endog	Yogyakarta
Pasar Seni Gabusan Pusat	Yogyakarta
Desa Wisata Tembi	Yogyakarta
Mangrove pantai Congot	Yogyakarta
Air Terjun Perawan Sidoharjo	Yogyakarta
Waduk Mini Kleco Kulon Progo	Yogyakarta
Gunung Lanang Kulon Progo	Yogyakarta
Goa Sriti Kulon Progo	Yogyakarta
Gunung Ijo Kulonprogo	Yogyakarta
Air Terjun Grojogan Sewu	Yogyakarta
Air Terjun Kedung Pedut	Yogyakarta
Pantai Bugel	Yogyakarta
Desa Wisata Nglingo	Yogyakarta
Air terjun Setawing	Yogyakarta
Taman Sungai Mudal	Yogyakarta
Embung Banjaroya	Yogyakarta
Waduk Sermo	Yogyakarta
Goa Kiskendo Kulon Progo	Yogyakarta
Puncak Suroloyo Kulon Progo	Yogyakarta
Teh Nglinggo di Bukit Menoreh	Yogyakarta
Puncak Widosari	Yogyakarta
Wildlife Rescue Centre Jogja	Yogyakarta
Puncak Gunung Lanang	Yogyakarta
Kebun Binatang Gembira Loka	Yogyakarta
Pusat Kerajinan Perak	Yogyakarta
Kampoeng Cyber Yogyakarta	Yogyakarta
Museum Affandi	Yogyakarta
Masjid Kotagede Yogyakarta	Yogyakarta
Masjid Syuhada Yogyakarta	Yogyakarta
Masjid Gedhe Kauman Yogyakarta	Yogyakarta
Masjid Besar Pakualaman Kota Yogyakarta	Yogyakarta
Maskam Ugm	Yogyakarta